0.2120954236638556,0.2849484041498689,0.8864147323314349,0.28218127565209017,0.1914637017014199
0.375719808790259,0.7557892460491255,0.23296324902317722,0.5867732471768126,0.5818978097983197
0.9235838304704813,0.6477078303481707,0.7229734873744488,0.8173352750903699,0.5975006165946697
0.018903818205714296,0.7232916588099166,0.2118990938116304,0.18747151985090527,0.03199152744662004
0.946522856195406,0.8509692902941771,0.03619826452277208,0.632221254573311,0.8473943705718346
0.15038654220391579,0.6714371434961534,0.10212863402808114,0.3604442491358226,0.8374640387123599
0.7014314912935191,0.027539958096972406,0.03702155028406395,0.35609120861544286,0.14419813039243123
0.14358938027174972,0.8131029934933754,0.48232529584104455,0.10714159339104912,0.39412505660362684
0.3656802894733965,0.15157715110970293,0.7490475231743947,0.6582330913849844,0.08384747112826374
0.5440910395602332,0.5243078687529589,0.08824933323830908,0.537780916778285,0.7762607291014355
0.36049279103771636,0.32214171010568426,0.24639288914024426,0.5261705259931726,0.6154710838500875
0.9866112951385473,0.8729371821593054,0.8746862867921256,0.9748143602192794,0.12169098902367392
0.3970343544302313,0.641418112104525,0.07293437926754198,0.6588162580791025,0.19334260332509812
0.14942067343503218,0.1370628394079666,0.8783036715537541,0.2184071063026043,0.190348647662556
0.25284934194532516,0.43587387443893366,0.051662599404950105,0.8274187916018869,0.8830087981476639
0.09573865253143621,0.5877882600875545,0.14455644815556934,0.7243429373294281,0.5179335577475828
0.917326522669101,0.24899920355717975,0.9479717694271669,0.6913940318101557,0.49497953964683095
0.8717559729242456,0.08722285599169699,0.5135137362360935,0.341854113581301,0.09126924760835065
0.4298391323111007,0.3279087438268311,0.7677665185710186,0.5753604639721892,0.13914422457733
0.5904029023585039,0.12811982516233833,0.25757239246007824,0.8722841923649459,0.7998527525796397
0.16062103954458928,0.49021280826840763,0.5208613395723433,0.06261709019786343,0.19604889504342027
0.9152605071578935,0.1594681578246505,0.8454939409893224,0.904392631333321,0.31014308636602506
0.16633810761836887,0.2514954206696448,0.6225221855353754,0.442850189763066,0.9894345857059409
0.3139548034595585,0.8456039643213894,0.5673534421375898,0.9377360654426384,0.7075890137051308
